{
  "name": "plethora-of-personal-logistics",
  "title": "Plethora of Personal Logistics",
  "version": "1.0.3",
  "factorio_version": "1.1",
  "author": "doktorstick",
  "homepage": "https://bitbucket.org/doktorstick/plethora-of-personal-logistics",
  "description": "Organizes personal logistics automagically, ordered by the crafting groups.",
  "dependencies": ["base >= 1.1.57"]
}
